How to use tidytext and wordcloud2
…
After we have the cleaned words, we can use count() function to find the most common words in all the books combined.

tidy_books_clean |>
  count(word, sort = TRUE) 

# A tibble: 28,100 × 2
   word       n
   <chr>  <int>
 1 mr     11154
 2 said    9567
 3 one     4058
 4 upon    4030
 5 sir     3491
 6 man     3271
 7 old     3233
 8 little  3051
 9 time    2747
10 now     2629
# ℹ 28,090 more rows

4. Sentiment Analysis

There are four sentiment lexicons available in the function get_sentiments(), which are afinn, bing, nrc, or loughran. We will use bing here, which categorizes words in a binary fashion into positive and negative categories.

get_sentiments("bing")

# A tibble: 6,786 × 2
   word        sentiment
   <chr>       <chr>    
 1 2-faces     negative 
 2 abnormal    negative 
 3 abolish     negative 
 4 abominable  negative 
 5 abominably  negative 
 6 abominate   negative 
 7 abomination negative 
 8 abort       negative 
 9 aborted     negative 
10 aborts      negative 
# ℹ 6,776 more rows

Check the sentiment section by section.

library(tidyr)
charlesdickenssentiment <- tidy_books_clean |>
  inner_join(get_sentiments("bing"), by = "word", relationship = "many-to-many") |>
  count(title, index = line %/% 100, sentiment) |>
  pivot_wider(names_from = sentiment, values_from = n, values_fill = 0) |>
  mutate(sentiment = positive - negative)
charlesdickenssentiment

# A tibble: 1,540 × 5
   title                        index negative positive sentiment
   <chr>                        <dbl>    <int>    <int>     <int>
 1 A Child's History of England     0       14       16         2
 2 A Child's History of England     1       32       45        13
 3 A Child's History of England     2       30       51        21
 4 A Child's History of England     3       41       23       -18
 5 A Child's History of England     4       40       26       -14
 6 A Child's History of England     5       39       38        -1
 7 A Child's History of England     6       34       64        30
 8 A Child's History of England     7       33       67        34
 9 A Child's History of England     8       53       46        -7
10 A Child's History of England     9       40       41         1
# ℹ 1,530 more rows
…
